10,1,1
18,1,4
13,1,4
7,2,2
4,2,3
13,2,5
19,2,1
12,2,3
11,2,3
1,2,3
20,2,4
2,2,1
3,2,2
0,3,3
4,3,5
8,3,2
7,3,2
10,3,5
16,3,5
21,3,4
23,3,3
21,4,3
4,4,4
7,4,1
23,4,2
24,4,5
6,4,5
3,4,1
13,4,2
2,4,2
5,4,4
18,4,4
15,4,5
22,4,2
1,4,4
17,4,2
20,4,4
19,4,5
9,4,1
14,4,4
12,4,2
11,4,1
16,5,2
10,5,5
23,5,3
21,5,5
4,5,4
11,5,1
6,5,2
12,5,3
15,5,2
13,5,4
17,5,3
5,5,4
2,5,2
3,5,1
9,5,4
1,5,5
20,5,3
19,5,5
14,5,3
24,5,4
18,5,5
0,6,5
4,6,2
8,6,2
7,6,1
10,6,5
16,6,5
21,6,3
23,6,2
16,7,2
19,7,5
14,7,4
1,7,2
22,7,2
17,7,5
12,7,2
9,7,5
6,7,1
24,7,1
5,7,4
15,7,5
13,7,2
3,7,4
2,7,1
20,7,2
11,7,5
18,7,1
21,8,2
16,8,5
7,8,3
10,8,4
8,8,2
23,8,1
22,8,2
6,8,2
18,8,5
13,8,1
12,8,4
5,8,2
1,8,3
15,8,4
3,8,5
17,8,2
2,8,2
14,8,1
20,8,3
24,8,3
19,8,1
11,8,2
9,8,1
10,9,3
7,9,4
21,9,5
4,9,5
8,9,4
16,9,5
23,9,5
15,9,4
21,10,1
4,10,2
12,10,3
18,10,5
21,11,2
23,11,2
7,11,3
16,11,2
10,11,4
4,11,2
15,11,4
17,11,5
24,11,1
6,11,1
14,11,4
11,11,2
13,11,1
1,11,2
12,11,1
3,11,4
19,11,4
20,11,2
22,11,5
5,11,2
0,12,5
4,12,5
8,12,5
7,12,4
10,12,5
16,12,5
21,12,5
23,12,4
16,13,5
3,13,1
9,13,2
17,13,4
18,13,1
2,13,1
20,13,2
19,13,5
6,13,2
11,13,1
14,13,3
5,13,3
4,14,4
8,14,5
5,14,4
3,14,4
1,14,5
22,14,5
9,14,5
11,14,3
15,14,3
20,14,5
14,14,4
13,14,2
17,14,5
16,15,4
23,15,2
4,15,1
8,15,1
10,15,4
21,15,2
7,15,5
2,15,1
11,15,5
3,15,3
20,15,1
19,15,4
0,16,5
4,16,5
8,16,5
7,16,3
10,16,2
16,16,2
21,16,5
23,16,3
10,17,1
4,17,1
21,17,4
16,17,5
23,17,5
7,17,2
8,17,4
12,17,5
19,17,5
7,18,1
10,18,2
8,18,5
11,18,4
15,18,4
18,18,1
24,18,3
6,18,2
20,18,1
5,18,2
19,18,5
9,18,4
13,18,3
14,18,4
2,18,5
22,18,3
17,18,3
10,19,2
8,19,1
4,19,1
23,19,5
21,19,3
14,19,5
20,19,5
12,19,1
19,19,2
15,19,1
18,19,1
1,19,3
6,19,4
22,19,2
16,20,5
8,20,3
10,20,3
23,20,3
4,20,2
20,20,3
19,20,4
2,20,1
18,20,1
16,21,1
4,21,3
23,21,4
8,21,5
22,21,1
19,21,5
13,21,1
24,21,1
2,21,2
9,21,3
20,21,2
0,22,3
4,22,4
8,22,3
7,22,2
10,22,5
16,22,4
21,22,5
23,22,3
4,23,1
21,23,4
23,23,3
7,23,4
10,23,1
19,23,5
6,23,4
1,23,2
2,23,2
20,23,1
10,24,5
23,24,5
4,24,1
21,24,4
16,24,4
7,24,5
14,24,2
1,24,3
15,24,4
2,24,4
9,24,5
11,24,4
24,24,1
18,24,5
3,24,5
6,24,5
5,24,2
17,24,4
13,24,2
22,24,4
19,24,1
12,24,5
20,24,3
10,25,2
16,25,5
21,25,2
8,25,5
4,25,1
7,25,5
23,25,5
18,25,5
13,25,2
5,25,1
19,25,2
9,25,5
1,25,4
4,26,1
21,26,5
16,26,5
7,26,4
10,26,1
23,26,1
13,26,2
22,26,2
3,26,3
18,26,1
14,26,2
5,26,3
17,26,2
9,26,3
20,26,5
4,27,3
23,27,5
10,27,1
16,27,5
7,27,2
24,27,3
2,27,2
19,27,2
18,27,1
13,27,3
5,27,5
15,27,3
3,27,3
11,27,5
9,27,4
1,27,5
0,28,5
4,28,5
8,28,5
7,28,4
10,28,2
16,28,2
21,28,2
23,28,2
7,29,5
2,29,1
17,29,1
11,29,5
15,29,5
19,29,3
0,30,4
4,30,5
8,30,1
7,30,1
10,30,1
16,30,5
21,30,2
23,30,3
16,31,2
7,31,1
4,31,1
21,31,4
8,31,4
23,31,1
19,31,5
13,31,5
4,32,5
7,32,5
16,32,5
23,32,5
8,32,1
9,32,5
15,32,2
24,32,2
19,32,3
11,32,3
12,32,3
0,33,4
4,33,1
8,33,1
7,33,4
10,33,2
16,33,2
21,33,3
23,33,4
8,34,1
23,34,1
4,34,2
21,34,2
10,34,4
16,34,1
20,34,5
19,34,2
6,34,5
22,34,5
13,34,1
5,34,4
15,34,2
2,34,5
9,34,5
12,34,1
17,34,2
14,34,2
24,34,2
1,34,2
11,34,2
18,34,5
3,34,5
4,35,3
7,35,1
21,35,1
3,35,5
12,35,4
16,36,4
1,36,4
9,36,4
24,36,2
10,37,3
2,37,4
17,37,4
1,37,3
3,37,3
14,37,1
20,37,2
13,37,4
5,37,1
22,37,3
11,37,4
19,37,2
15,37,2
6,37,3
9,37,1
24,37,1
18,37,4
12,37,2
0,38,5
4,38,3
8,38,1
7,38,4
10,38,3
16,38,3
21,38,4
23,38,5
4,39,3
8,39,1
7,39,1
10,39,4
16,39,3
21,39,4
23,39,3
7,40,1
22,40,3
6,40,1
11,40,1
5,40,1
1,40,5
2,40,4
24,40,3
20,40,1
19,40,5
3,40,4
15,40,5
13,40,3
9,40,4
17,40,1
12,40,4
18,40,3
14,40,1
16,41,2
8,41,3
4,41,5
3,41,5
11,41,5
14,41,2
13,41,2
4,42,5
24,42,2
2,42,3
1,42,4
14,42,2
17,42,2
16,43,4
8,43,1
4,43,2
23,43,3
21,43,1
7,43,2
19,43,3
22,43,5
24,43,2
18,43,4
12,43,4
11,43,1
10,44,2
16,44,4
23,44,2
15,44,1
19,44,4
6,44,5
3,44,4
17,44,5
13,44,5
2,44,3
5,44,3
1,44,2
4,45,3
7,45,2
17,45,5
5,45,2
12,45,5
1,45,2
11,45,5
3,45,4
18,45,2
2,45,2
23,46,3
7,46,2
16,46,3
3,46,3
13,46,2
9,46,2
5,46,1
2,46,4
22,46,2
14,46,3
21,47,4
7,47,2
17,47,4
14,47,5
13,47,2
24,47,5
12,47,2
6,47,5
15,47,5
11,47,4
5,47,3
16,48,5
23,48,1
8,48,1
2,48,5
24,48,2
15,48,3
18,48,5
6,48,2
17,48,5
12,48,3
19,48,5
1,48,2
11,48,1
14,48,1
22,48,1
20,48,4
5,48,3
3,48,3
9,48,4
13,48,5
4,49,5
8,49,3
7,49,1
10,49,3
16,49,3
21,49,4
23,49,4
4,50,5
23,50,1
8,50,3
16,50,1
21,50,1
2,50,2
9,50,1
23,51,2
21,51,5
16,51,4
8,51,5
19,51,3
1,51,2
15,51,2
2,51,4
18,51,5
20,51,1
5,51,1
24,51,3
4,52,3
7,52,3
10,52,2
8,52,4
23,52,5
16,52,1
5,52,5
13,52,5
1,52,3
6,52,5
19,52,4
20,52,3
18,52,4
22,52,3
12,52,3
24,52,5
17,52,1
14,52,1
15,52,5
3,52,4
9,52,1
2,52,3
7,53,3
4,53,3
8,53,1
16,53,4
23,53,2
21,53,1
11,53,1
3,53,5
5,53,3
1,53,1
15,53,4
13,53,2
18,53,2
9,53,1
14,53,4
20,53,3
12,53,1
6,53,2
17,53,3
19,53,1
2,53,3
16,54,1
15,54,5
1,54,4
17,54,4
2,54,1
11,54,1
19,54,3
5,54,1
24,54,4
12,54,1
22,54,3
16,55,1
23,55,3
10,55,2
4,55,1
7,55,4
8,55,3
21,55,5
19,55,3
18,55,5
22,55,1
5,55,2
12,55,1
13,55,5
17,55,2
11,55,1
2,55,1
6,55,2
1,55,5
3,55,1
7,56,4
20,56,4
24,56,1
2,56,3
18,56,2
13,56,3
9,56,2
22,56,2
19,56,2
5,56,4
1,56,4
17,56,3
4,57,5
10,57,3
7,57,4
21,57,5
8,57,4
16,57,2
23,57,1
6,57,3
12,57,3
15,57,5
9,57,5
14,57,5
8,58,2
16,58,1
10,58,2
21,58,1
23,58,3
4,58,4
24,58,2
11,58,5
14,58,2
3,58,1
12,58,2
19,58,4
22,58,5
6,58,4
20,58,5
17,58,2
15,58,1
2,58,1
18,58,2
5,58,3
1,58,4
13,58,1
4,59,5
8,59,4
7,59,5
10,59,1
16,59,1
21,59,1
23,59,3
8,60,4
7,60,4
20,60,1
5,60,4
6,60,5
3,60,2
9,60,2
1,60,1
4,61,2
8,61,2
7,61,3
10,61,2
16,61,3
21,61,4
23,61,5
16,62,2
23,62,3
19,62,2
20,62,1
2,62,5
1,62,3
15,62,4
24,62,1
23,63,3
7,63,5
16,63,3
10,63,2
2,63,5
4,64,4
7,64,3
8,64,5
23,64,5
21,64,2
16,64,3
11,64,5
6,64,3
15,64,1
9,64,5
20,64,2
10,65,1
7,65,5
8,65,1
16,65,2
17,65,1
13,65,4
14,65,5
22,65,2
4,66,4
8,66,1
7,66,2
10,66,2
16,66,2
21,66,1
23,66,2
16,67,2
10,67,4
23,67,4
4,67,2
21,67,5
7,67,2
5,67,4
15,67,3
22,67,1
11,67,3
17,67,2
19,67,3
1,67,3
6,67,5
12,67,3
23,68,2
16,68,1
7,68,1
10,68,2
21,68,2
8,68,5
4,68,4
1,68,5
22,68,2
19,68,4
6,68,5
5,68,4
11,68,1
9,68,1
2,68,1
3,68,3
14,68,2
15,68,3
18,68,1
13,68,5
17,68,2
24,68,4
12,68,3
10,69,1
7,69,2
8,69,1
16,69,3
6,69,4
3,69,1
12,69,2
24,69,3
19,69,2
5,69,4
14,69,1
2,69,4
11,69,1
20,69,3
18,69,5
13,69,3
22,69,2
9,69,5
16,70,5
20,70,5
24,70,5
12,70,3
11,70,1
13,70,4
7,71,4
4,71,3
16,71,4
8,71,2
10,71,4
21,71,2
6,71,5
15,71,3
13,71,2
24,71,3
18,71,1
9,71,1
1,71,5
17,71,3
4,72,3
8,72,3
7,72,4
10,72,1
16,72,2
21,72,4
23,72,4
7,73,2
16,73,3
10,73,5
3,73,5
12,73,4
2,73,5
1,73,3
6,73,4
5,73,5
11,73,5
22,73,2
24,73,2
18,73,5
20,73,4
17,73,1
16,74,3
23,74,1
21,74,1
7,74,1
18,74,2
14,74,3
12,74,4
13,74,1
3,74,3
4,75,1
8,75,3
7,75,3
10,75,4
16,75,5
21,75,1
23,75,3
4,76,4
8,76,4
7,76,1
10,76,1
16,76,1
21,76,4
23,76,2
4,77,5
18,77,4
20,77,1
11,77,5
2,77,3
5,77,2
13,77,4
6,77,2
19,77,3
12,77,3
17,77,1
1,77,5
24,77,4
4,78,1
10,78,5
23,78,3
8,78,5
16,78,4
21,78,1
14,78,2
13,78,2
20,78,5
6,78,2
17,78,5
24,78,3
12,78,1
22,78,1
3,78,4
4,79,5
16,79,5
21,79,3
23,79,4
6,79,1
17,79,5
7,80,1
8,80,5
10,80,2
6,80,3
3,80,3
5,80,4
9,80,2
1,80,1
24,80,4
15,80,3
12,80,5
13,80,2
11,80,2
10,81,1
14,81,2
17,81,1
12,81,2
19,81,4
24,81,3
1,81,4
18,81,3
6,81,2
22,81,4
15,81,1
20,81,4
13,81,3
9,81,3
3,81,1
5,81,2
2,81,1
7,82,4
4,82,4
10,82,3
8,82,4
21,82,2
16,82,3
13,82,4
14,82,2
19,82,4
17,82,1
5,82,4
18,82,4
6,82,4
12,82,5
1,82,2
2,82,1
11,82,4
20,82,4
15,82,5
3,82,4
9,82,2
16,83,5
4,83,3
21,83,4
23,83,2
10,83,2
7,83,1
14,83,1
20,83,5
18,83,3
6,83,3
13,83,3
4,84,4
16,84,1
3,84,2
24,84,1
19,84,2
14,84,3
11,84,3
12,84,3
21,85,5
4,85,2
10,85,2
11,85,1
9,85,4
6,85,1
12,85,3
3,85,4
18,85,2
19,85,4
17,85,1
22,85,4
4,86,1
8,86,4
7,86,4
10,86,1
16,86,5
21,86,1
23,86,1
7,87,1
21,87,5
10,87,5
4,87,2
13,87,2
22,87,1
3,87,2
18,87,3
12,87,3
14,87,5
6,87,3
1,87,3
20,87,5
9,87,4
10,88,5
23,88,5
16,88,3
8,88,5
4,88,4
15,88,1
17,88,5
9,88,5
13,88,1
18,88,2
2,88,5
6,88,5
12,88,5
20,88,4
22,88,2
5,88,4
24,88,5
14,88,2
1,88,3
19,88,4
3,88,5
16,89,2
10,89,2
23,89,1
21,89,4
4,89,4
7,89,2
13,89,4
1,89,4
9,89,5
12,89,3
4,90,1
8,90,2
7,90,5
10,90,2
16,90,4
21,90,1
23,90,4
10,91,4
4,91,2
7,91,2
23,91,1
8,91,4
21,91,3
16,91,2
3,91,3
12,91,4
5,91,1
14,91,2
9,91,4
1,91,3
24,91,4
17,91,5
19,91,2
13,91,3
22,91,2
20,91,5
21,92,4
16,92,1
7,92,4
10,92,5
20,92,4
11,92,5
13,92,3
17,92,5
1,92,1
6,92,2
21,93,3
16,93,3
7,93,4
4,93,4
23,93,1
10,93,1
8,93,5
3,93,5
23,94,5
21,94,4
4,94,5
10,94,5
8,94,4
7,94,2
3,94,1
2,94,3
19,94,2
9,94,1
17,94,1
13,94,4
15,94,4
12,94,3
6,94,2
22,94,3
20,94,2
24,94,5
14,94,5
1,94,3
11,94,1
18,94,5
16,95,5
10,95,1
23,95,5
21,95,5
4,95,4
7,95,5
8,95,3
12,95,2
3,95,4
6,95,2
2,95,5
24,95,5
20,95,5
11,95,5
19,95,4
9,95,1
1,95,5
22,95,1
13,95,3
18,95,3
14,95,1
5,95,3
10,96,3
16,96,2
12,96,3
23,97,3
7,97,5
10,97,2
21,97,5
15,97,1
2,97,1
20,97,3
17,97,3
19,97,1
1,97,4
18,97,3
4,98,2
21,98,4
8,98,4
10,98,5
7,98,3
16,98,2
23,98,4
12,98,1
24,98,4
15,98,1
13,98,1
18,98,1
11,98,3
19,98,1
20,98,3
2,98,3
17,98,2
6,98,5
1,98,2
22,98,4
4,99,4
8,99,5
7,99,1
10,99,3
16,99,3
21,99,3
23,99,5